BrazilDataAPI: Access Brazilian Economic, Demographic, Environmental, and Geopolitical Data via RESTful APIs and Curated Datasets • BrazilDataAPI
…
Get Vehicle Brands from BrasilAPI (FIPE Data)

# A string indicating the type of vehicle. Must be one of "carros", "motos", or "caminhoes".

brazil_vehicles <- get_brazil_vehicle_brands("motos")

print(brazil_vehicles)
#> # A tibble: 94 × 2
#>    nome     valor
#>    <chr>    <chr>
#>  1 ADLY     60   
#>  2 AGRALE   61   
#>  3 APRILIA  62   
#>  4 ATALA    63   
#>  5 BAJAJ    64   
#>  6 BETA     65   
#>  7 BIMOTA   66   
#>  8 BMW      67   
#>  9 BRANDY   68   
#> 10 byCristo 69   
#> # ℹ 84 more rows

Get Municipalities of a Brazilian State

# A two-letter string representing the Brazilian state abbreviation (e.g., "SP", "RJ", "BA").

brazil_Municipalities <- get_brazil_municipalities("SP")

print(brazil_Municipalities)
#> # A tibble: 645 × 2
#>    nome                   codigo_ibge
#>    <chr>                  <chr>      
#>  1 ADAMANTINA             3500105    
#>  2 ADOLFO                 3500204    
#>  3 AGUAÍ                  3500303    
#>  4 ÁGUAS DA PRATA         3500402    
#>  5 ÁGUAS DE LINDÓIA       3500501    
#>  6 ÁGUAS DE SANTA BÁRBARA 3500550    
#>  7 ÁGUAS DE SÃO PEDRO     3500600    
#>  8 AGUDOS                 3500709    
#>  9 ALAMBARI               3500758    
#> 10 ALFREDO MARCONDES      3500808    
#> # ℹ 635 more rows
…
